Team,sum
Deccan Chargers,0.560000000000000022
Kings XI Punjab,0.657000000000000014
Kolkata Knight Riders,0.877000000000000002
Mumbai Indians,1.345999999999999990
Pune Warriors,0.816000000000000026
Rajasthan Royals,0.453999999999999995
Royal Challengers Bangalore,0.871000000000000002
Delhi Daredevils,0.67
Chennai Super Kings,0.437999999999999999
